<svg width="20" height="26" viewBox="0 0 20 26" fill="none" xmlns="http://www.w3.org/2000/svg">
<path d="M9.99951 0.749695C7.44773 0.752723 5.00133 1.76775 3.19695 3.57214C1.39257 5.37652 0.377539 7.82292 0.374512 10.3747C0.374512 18.6103 9.12451 24.831 9.49707 25.0916C9.64441 25.1945 9.81979 25.2497 9.99951 25.2497C10.1792 25.2497 10.3546 25.1945 10.502 25.0916C10.8745 24.831 19.6245 18.6103 19.6245 10.3747C19.6215 7.82292 18.6065 5.37652 16.8021 3.57214C14.9977 1.76775 12.5513 0.752722 9.99951 0.749695ZM10.0002 6.87501C10.6924 6.87501 11.3691 7.08028 11.9446 7.46487C12.5202 7.84945 12.9688 8.39608 13.2337 9.03562C13.4986 9.67516 13.5679 10.3789 13.4329 11.0578C13.2979 11.7368 12.9645 12.3604 12.475 12.8499C11.9855 13.3394 11.3619 13.6727 10.683 13.8078C10.004 13.9428 9.3003 13.8735 8.66076 13.6086C8.02122 13.3437 7.47459 12.8951 7.09001 12.3195C6.70542 11.7439 6.50015 11.0672 6.50015 10.375C6.50014 9.91538 6.59066 9.46025 6.76655 9.0356C6.94243 8.61096 7.20024 8.22512 7.52525 7.90011C7.85026 7.5751 8.2361 7.31729 8.66075 7.14141C9.08539 6.96552 9.54052 6.875 10.0002 6.87501Z" fill="#0088CF"/>
</svg>
